Processing Data with {mnirs} • mnirs
…
## ignore the Warning about repeated samples here

data_raw
#> # A tibble: 2,203 × 4
#>     time   lap smo2_left smo2_right
#>    <dbl> <dbl>     <dbl>      <dbl>
#>  1  0        1        54         68
#>  2  0.4      1        54         68
#>  3  0.96     1        54         68
#>  4  1.51     1        54         66
#>  5  2.06     1        54         66
#>  6  2.61     1        54         66
#>  7  3.16     1        54         66
#>  8  3.71     1        57         67
#>  9  4.26     1        57         67
#> 10  4.81     1        57         67
#> # ℹ 2,193 more rows
…
resample_time: Alternatively, we can specify the output as a number of seconds per sample to produce the same result.

This example dataset is already at relatively low sample rate, but let’s just see what it looks like if for some reason we wanted to down-sample further to 0.1 Hz (1 sample every 10 sec).

data_downsampled <- data_cleaned |> 
    resample_data(sample_channel = NULL, ## will be automatically read from metadata
                  sample_rate = NULL, ## will be automatically read from metadata
                  resample_time = 10, ## equal to `resample_rate = 0.1`
                  na.rm = TRUE) ## interpolate across missing data appropriately
#> ℹ `sample_rate` = 2 Hz.
#> ℹ Output is resampled at 0.1 Hz.

data_downsampled
#> # A tibble: 121 × 4
#>     time   lap smo2_left smo2_right
#>    <dbl> <dbl>     <dbl>      <dbl>
#>  1     0     1      54           68
#>  2    10     1      55           64
#>  3    20     1      56           66
#>  4    30     1      56           65
#>  5    40     1      56           65
#>  6    50     1      55           62
#>  7    60     1      55           65
#>  8    70     1      55.7         68
#>  9    80     1      56.5         67
#> 10    90     1      57           68
#> # ℹ 111 more rows
…
